<?xml version="1.0" encoding="UTF-8" standalone="no"?>
<!-- Created with Inkscape (http://www.inkscape.org/) -->

<svg xmlns:dc="http://purl.org/dc/elements/1.1/" xmlns:cc="http://creativecommons.org/ns#" xmlns:rdf="http://www.w3.org/1999/02/22-rdf-syntax-ns#" xmlns:svg="http://www.w3.org/2000/svg" xmlns="http://www.w3.org/2000/svg" xmlns:sodipodi="http://sodipodi.sourceforge.net/DTD/sodipodi-0.dtd" xmlns:inkscape="http://www.inkscape.org/namespaces/inkscape" id="svg2" height="20" width="20" version="1.1" inkscape:version="0.48+devel r" sodipodi:docname="github.svg">
  <defs id="defs13" />
  <sodipodi:namedview pagecolor="#ffffff" bordercolor="#666666" borderopacity="1" objecttolerance="10" gridtolerance="10" guidetolerance="10" inkscape:pageopacity="0" inkscape:pageshadow="2" inkscape:window-width="1855" inkscape:window-height="1056" id="namedview11" showgrid="false" inkscape:zoom="9.833" inkscape:cx="12" inkscape:cy="12" inkscape:window-x="65" inkscape:window-y="24" inkscape:window-maximized="1" inkscape:current-layer="svg2" />
  <metadata id="metadata7">
    <rdf:RDF>
      <cc:Work rdf:about="">
        <dc:format>image/svg+xml</dc:format>
        <dc:type rdf:resource="http://purl.org/dc/dcmitype/StillImage" />
        <dc:title></dc:title>
      </cc:Work>
    </rdf:RDF>
  </metadata>
  <g id="layer1" transform="translate(-2,-1030)" style="fill:#816647">
    <g id="g4036" transform="translate(-67.91,-42.84)">
      <path id="path4259" d="m 84.57,1079 c 0.51,1 0.2,2 -0.21,3 l -2.47,-2 c 0,0 1.34,-1 2.68,-1 z" style="color:#000000" inkscape:connector-curvature="0" />
      <path id="path4246" style="color:#000000" d="m 12,3 c -4.971,0 -9,4.029 -9,9 0,4.97 4.029,9 9,9 4.97,0 9,-4.03 9,-9 0,-4.971 -4.03,-9 -9,-9 z m 0,1.5 c 4.14,0 7.5,3.358 7.5,7.5 0,4.14 -3.36,7.5 -7.5,7.5 C 7.858,19.5 4.5,16.14 4.5,12 4.5,7.858 7.858,4.5 12,4.5 Z" transform="translate(67.91,1071)" inkscape:connector-curvature="0" />
      <path id="path4251" style="color:#000000" d="m 12,8 c -2.134,0 -5,2 -5,4 0,3 1,4.3 5,4.3 4,0 5,-1.3 5,-4.3 0,-2 -2.87,-4 -5,-4 z" transform="translate(67.91,1071)" inkscape:connector-curvature="0" />
      <path id="path4253" style="color:#000000" d="m 12,16 c -1.78,0 -1.98,0.93 -2,4 l 4,0 c 0,-3.07 -0.22,-4 -2,-4 z" transform="translate(67.91,1071)" inkscape:connector-curvature="0" />
      <path id="path4255" style="color:#000000" d="m 75.14,1079 c -0.51,1 -0.1,2 0.31,3 l 2.39,-2 c 0,0 -1.37,-1 -2.7,-1 z" inkscape:connector-curvature="0" />
    </g>
  </g>
</svg>
